…
Let's also add a time column for use as x-axis. I could probably use the timestamp channel, but I'm lazy and will just construct it on the fly from the number of rows:
```julia
sampling_rate = BrainFlow.get_sampling_rate(BrainFlow.GFORCE_PRO_BOARD)
nrows = size(df)[1]
df.time = (1:nrows)/sampling_rate
```

Now you should have a dataframe with some named EMG columns and a time column:
```
julia> df
2576×9 DataFrame
  Row │ emg1     emg2     emg3     emg4     emg5     emg6     emg7     emg8     time    
      │ Float64  Float64  Float64  Float64  Float64  Float64  Float64  Float64  Float64 
──────┼─────────────────────────────────────────────────────────────────────────────────
    1 │ 31095.0  31342.0  29554.0  30069.0  31095.0  31860.0  29299.0  30069.0    0.002
  ⋮   │    ⋮        ⋮        ⋮        ⋮        ⋮        ⋮        ⋮        ⋮        ⋮
2575 rows omitted
```

The Grammar of Graphics is a little special, it's typically best to go for the most tall dataframe as possible. You'll see in a moment why, but let's just stack all the emg channels into two columns:
```julia
df2 = stack(df, 1:8)
rename!(df2, [:time, :channel, :value])
```

Now we have a dataframe with the channel values stacked in one column, and the channel names in another column:
```
julia> df2
20608×3 DataFrame
   Row │ time     channel  value
       │ Float64  String   Float64
───────┼───────────────────────────
     1 │   0.002  emg1     31095.0
   ⋮   │    ⋮        ⋮        ⋮
20607 rows omitted
```
…
